Exploratory Data Analysis and Cleaning Report
…
The confirmed cases data from Johns Hopkins CSSE was fairly clean, and only required minimal cleaning. However, there are some ambiguities in terms of State/Province, as some smaller countries only have reports of every case in the country rather than by individual province/state entries as well. Additionally, there was some redundant data (like longitude and latitude), but this was kept in the data set for geographical distinction and potential map visuals down the line. The more difficult data to clean was the patient data.

The patient data is a compilation by medical staff, and so there isnt a set manner by which data is included. Thankfully, some columns such as gender and age are included, which dont require massive amounts of cleaning. However, what we were really interested in, the outcomes of patients, were extremely muddled and messy. In some cases, the death/recovered columns were both empty, amongst other minor issues (1s and 0s at times, dates at others). To remedy this, we created an outcome column, and decided to only keep outcome, gender, age, and country. We felt the other columns were unnecessary and oftentimes incomplete.

Overall, these datasets are very useful in terms of predicting the rate of spread, and examining the impact global shutdowns have had, if any, on the spread of the coronavirus, as well as examining indivdual cases by age, country, and gender (at least in terms of survivability).

The changes in scope we made out this point were to replace a question with a much more modern one, in face of the governmental response. Instead of comparing the COVID-19 outbreak to SARS, we are going to investigate how quarantine has, if at all, changed the rate of infection of the virus.

Exploration/ further cleaning

#Group by country, summarize cases
overall_sum <- group_by(data, `Country/Region`) %>% summarize(cases = sum(cases)) %>% arrange(-cases)
overall_sum

## # A tibble: 184 x 2
##    `Country/Region`   cases
##    <chr>              <dbl>
##  1 China            4847436
##  2 US               3657943
##  3 Italy            2217867
##  4 Spain            1762730
##  5 Germany          1363131
##  6 France           1101300
##  7 Iran              980452
##  8 United Kingdom    529083
##  9 Korea, South      338399
## 10 Switzerland       320133
## #  with 174 more rows
…
Given the above, we can safely say that the dataset is already cumulative so any further sums of case numbers would be silly. Thus, a more accurate depiction of the first exploratory table would look like the following:

recent_sum <- data[data$date == '2020-04-08',] %>% group_by(`Country/Region`) %>% summarize(cases = sum(cases)) %>% arrange(-cases)
recent_sum

## # A tibble: 184 x 2
##    `Country/Region`  cases
##    <chr>             <dbl>
##  1 US               429052
##  2 Spain            148220
##  3 Italy            139422
##  4 France           113959
##  5 Germany          113296
##  6 China             82809
##  7 Iran              64586
##  8 United Kingdom    61474
##  9 Turkey            38226
## 10 Belgium           23403
## #  with 174 more rows
…
